^\\APPSDATA3.FVTC.EDU\USERDATA$\700175267\DOCUMENTS\C++\EXERCISE3\EXCERSIZE3\DEBUG\MAIN.OBJ
\\APPSDATA3.FVTC.EDU\USERDATA$\700175267\DOCUMENTS\C++\EXERCISE3\DEBUG\EXERCISE3.ILK
\\APPSDATA3.FVTC.EDU\USERDATA$\700175267\DOCUMENTS\C++\EXERCISE3\DEBUG\EXERCISE3.EXE
\\APPSDATA3.FVTC.EDU\USERDATA$\700175267\DOCUMENTS\C++\EXERCISE3\DEBUG\EXERCISE3.PDB
